{
  "service": "simple-search-view",
  "plugins": [
    "serverless-plugin-typescript"
  ],
  "provider": {
    "name": "aws",
    "region": "us-east-1",
    "stage": "${opt:stage, 'dev'}",
    "apiName": "simple-search-view-api-${opt:stage, 'dev'}",
    "runtime": "nodejs12.x",
    "lambdaHashingVersion": "20201221",
    "environment": {
      "ENV": "${opt:stage, 'dev'}",
      "REGION": "${self:provider.region}"
    }
  },
  "functions": {
    "companysearch": {
      "handler": "company/search-handler.handler",
      "events": [
        {
          "http": {
            "path": "company",
            "method": "GET"
          }
        }
      ]
    }
  },
  "resources": {
    "Resources": {
      "simplesearchviewfrontenddeploymentbucket": {
        "Type": "AWS::S3::Bucket",
        "Properties": {
          "BucketName": "simple-search-view-frontenddeploymentbucket-8986212-${self:provider.stage}",
          "AccessControl": "PublicRead",
          "WebsiteConfiguration": {
            "IndexDocument": "index.html",
            "ErrorDocument": "index.html"
          }
        }
      },
      "simplesearchviewfrontenddeploymentbucketpolicy": {
        "Type": "AWS::S3::BucketPolicy",
        "Properties": {
          "Bucket": {
            "Ref": "simplesearchviewfrontenddeploymentbucket"
          },
          "PolicyDocument": {
            "Id": "pd-simple-search-view-frontenddeploymentbucket-8986212-${self:provider.stage}",
            "Version": "2012-10-17",
            "Statement": [
              {
                "Sid": "PublicReadForGetBucketObjects",
                "Effect": "Allow",
                "Action": [
                  "s3:GetObject"
                ],
                "Principal": "*",
                "Resource": [
                  {
                    "Fn::Join": [
                      "",
                      [
                        "arn:aws:s3:::",
                        {
                          "Ref": "simplesearchviewfrontenddeploymentbucket"
                        },
                        "/*"
                      ]
                    ]
                  }
                ]
              }
            ]
          }
        }
      },
      "simplesearchviewfrontendcloudfrontdistribution": {
        "Type": "AWS::CloudFront::Distribution",
        "Properties": {
          "DistributionConfig": {
            "DefaultCacheBehavior": {
              "Compress": true,
              "ForwardedValues": {
                "QueryString": false
              },
              "TargetOriginId": {
                "Fn::Join": [
                  "",
                  [
                    {
                      "Ref": "simplesearchviewfrontenddeploymentbucket"
                    },
                    ".s3.amazonaws.com"
                  ]
                ]
              },
              "ViewerProtocolPolicy": "redirect-to-https",
              "AllowedMethods": [
                "GET",
                "HEAD"
              ]
            },
            "DefaultRootObject": "index.html",
            "Enabled": true,
            "HttpVersion": "http2",
            "Origins": [
              {
                "DomainName": {
                  "Fn::Select": [
                    2,
                    {
                      "Fn::Split": [
                        "/",
                        {
                          "Fn::GetAtt": [
                            "simplesearchviewfrontenddeploymentbucket",
                            "WebsiteURL"
                          ]
                        }
                      ]
                    }
                  ]
                },
                "Id": {
                  "Fn::Join": [
                    "",
                    [
                      {
                        "Ref": "simplesearchviewfrontenddeploymentbucket"
                      },
                      ".s3.amazonaws.com"
                    ]
                  ]
                },
                "CustomOriginConfig": {
                  "HTTPPort": "80",
                  "HTTPSPort": "443",
                  "OriginProtocolPolicy": "http-only"
                }
              }
            ],
            "PriceClass": "PriceClass_All",
            "ViewerCertificate": {
              "CloudFrontDefaultCertificate": true
            }
          }
        }
      }
    }
  }
}